﻿Cases	AtRisk
21	49
22	76
47	166
3	14
8	24
25	81
31	92
26	57
12	45
5	17
73	263
27	80
66	202
41	179
39	114
26	77
16	55
10	63
9	22
4	10
19	66
7	18
32	113
23	69
12	86
26	77
6	19
4	12
28	105
7	11
33	96
6	30
18	94
12	47
14	58
11	25
19	75
6	33
34	107
19	59
22	84
8	42
5	30
3	15
32	97
5	10
16	43
20	61
7	18
29	116
19	73
14	46
16	81
4	8
8	37
8	36
4	11
5	16
0	1
5	17
43	138
6	18
42	124
3	10
27	89
33	81
52	112
26	76
49	202
25	85
50	106
